rtl/spimemory_2.vcd
$date
	Wed Oct 17 23:31:41 2018
$end
$version
	Icarus Verilog
$end
$timescale
	1s
$end
$scope module spitest $end
$var wire 4 ! leds [3:0] $end
$var wire 1 " miso_pin $end
$var reg 1 # clk $end
$var reg 1 $ cs_pin $end
$var reg 1 % mosi_pin $end
$var reg 1 & sclk_pin $end
$var integer 32 ' i [31:0] $end
$scope module dut $end
$var wire 1 # clk $end
$var wire 1 $ cs_pin $end
$var wire 4 ( leds [3:0] $end
$var wire 1 " miso_pin $end
$var wire 1 % mosi_pin $end
$var wire 1 & sclk_pin $end
$var wire 1 ) sr_we $end
$var wire 8 * shift_reg_parallel_out [7:0] $end
$var wire 1 + serial_out_delayed $end
$var wire 1 , serial_out $end
$var wire 1 - serial_in $end
$var wire 1 . sclk_posedge $end
$var wire 1 / sclk_negedge $end
$var wire 1 0 miso_buff $end
$var wire 1 1 dm_we $end
$var wire 8 2 datamemout [7:0] $end
$var wire 1 3 cs $end
$var wire 7 4 address [6:0] $end
$var wire 1 5 addr_we $end
$scope module al $end
$var wire 1 # clk $end
$var wire 7 6 d [6:0] $end
$var wire 1 5 ce $end
$var reg 7 7 q [6:0] $end
$upscope $end
$scope module cs_inputcond $end
$var wire 1 # clk $end
$var wire 1 $ noisysignal $end
$var reg 1 3 conditioned $end
$var reg 3 8 counter [2:0] $end
$var reg 1 9 negativeedge $end
$var reg 1 : positiveedge $end
$var reg 1 ; synchronizer0 $end
$var reg 1 < synchronizer1 $end
$upscope $end
$scope module dm $end
$var wire 7 = address [6:0] $end
$var wire 1 # clk $end
$var wire 1 1 writeEnable $end
$var wire 8 > dataIn [7:0] $end
$var reg 8 ? dataOut [7:0] $end
$upscope $end
$scope module fsm0 $end
$var wire 1 3 cs $end
$var wire 1 @ rw $end
$var wire 1 . sclk_edge $end
$var reg 1 5 addr_we $end
$var reg 4 A counter [3:0] $end
$var reg 1 1 dm_we $end
$var reg 1 0 miso_buff $end
$var reg 1 ) sr_we $end
$var reg 3 B state [2:0] $end
$upscope $end
$scope module miso_dff $end
$var wire 1 # clk $end
$var wire 1 , d $end
$var wire 1 / ce $end
$var reg 1 + q $end
$upscope $end
$scope module mosi_inputcond $end
$var wire 1 # clk $end
$var wire 1 % noisysignal $end
$var reg 1 - conditioned $end
$var reg 3 C counter [2:0] $end
$var reg 1 D negativeedge $end
$var reg 1 E positiveedge $end
$var reg 1 F synchronizer0 $end
$var reg 1 G synchronizer1 $end
$upscope $end
$scope module sclk_inputcond $end
$var wire 1 # clk $end
$var wire 1 & noisysignal $end
$var reg 1 H conditioned $end
$var reg 3 I counter [2:0] $end
$var reg 1 / negativeedge $end
$var reg 1 . positiveedge $end
$var reg 1 J synchronizer0 $end
$var reg 1 K synchronizer1 $end
$upscope $end
$scope module sr $end
$var wire 1 # clk $end
$var wire 8 L parallelDataIn [7:0] $end
$var wire 8 M parallelDataOut [7:0] $end
$var wire 1 ) parallelLoad $end
$var wire 1 . peripheralClkEdge $end
$var wire 1 - serialDataIn $end
$var wire 1 , serialDataOut $end
$var reg 8 N mem [7:0] $end
$upscope $end
$upscope $end
$upscope $end
$enddefinitions $end
#0
$dumpvars
bx N
bx M
bx L
0K
0J
b0 I
xH
0G
0F
xE
xD
b0 C
b0 B
b0 A
x@
bx ?
bx >
bx =
0<
0;
x:
x9
b0 8
bx 7
bx 6
x5
bx 4
x3
bx 2
x1
x0
x/
x.
x-
x,
x+
bx *
x)
bz (
bx '
0&
0%
1$
0#
x"
bz !
$end
#1
b1 C
b1 I
1;
b1 8
1#
#2
0#
#3
1<
b10 8
b10 I
b10 C
1#
#4
0#
#5
b11 C
b11 I
b11 8
1#
#6
0#
#7
1:
13
b0 8
1/
0H
b0 I
1D
0-
b0 C
1#
#8
0#
#9
0D
0/
0:
1#
#10
0#
#11
1#
#12
0#
#13
1#
#14
0#
#15
1#
#16
0#
#17
1#
#18
0#
#19
1#
#20
0#
#21
1#
#22
0#
#23
1#
#24
0#
#25
1#
#26
0#
#27
1#
#28
0#
#29
1#
#30
0#
#31
1#
#32
0#
#33
1#
#34
0#
#35
1#
#36
0#
#37
1#
#38
0#
#39
1#
#40
0#
#41
1#
#42
0#
#43
1#
#44
0#
#45
1#
#46
0#
#47
1#
#48
0#
#49
1#
#50
0#
#51
1#
#52
0#
#53
1#
#54
0#
#55
1#
#56
0#
#57
1#
#58
0#
#59
1#
#60
0#
#61
1#
#62
0#
#63
1#
#64
0#
#65
1#
#66
0#
#67
1#
#68
0#
#69
1#
#70
0#
#71
1#
#72
0#
#73
1#
#74
0#
#75
1#
#76
0#
#77
1#
#78
0#
#79
1#
#80
0#
#81
1#
#82
0#
#83
1#
#84
0#
#85
1#
#86
0#
#87
1#
#88
0#
#89
1#
#90
0#
#91
1#
#92
0#
#93
1#
#94
0#
#95
1#
#96
0#
#97
1#
#98
0#
#99
1#
#100
0#
1&
#101
1J
1#
#102
0#
#103
1K
1#
#104
0#
#105
b1 I
1#
#106
0#
#107
b10 I
1#
#108
0#
#109
b11 I
1#
#110
0#
#111
0)
05
01
z"
00
1.
1H
b0 I
1#
#112
0#
#113
0@
bx0 6
0.
bx0 *
bx0 >
bx0 M
bx0 N
1#
