spimemory.vcd
$date
	Wed Oct 17 10:41:24 2018
$end
$version
	Icarus Verilog
$end
$timescale
	1s
$end
$scope module spimemorytestbenchharness $end
$var wire 4 ! leds [3:0] $end
$var wire 1 " sclk_pin $end
$var wire 1 # mosi_pin $end
$var wire 1 $ miso_pin $end
$var wire 1 % endtest $end
$var wire 1 & dutpassed $end
$var wire 1 ' cs_pin $end
$var wire 1 ( clk $end
$var reg 1 ) begintest $end
$scope module DUT $end
$var wire 4 * leds [3:0] $end
$var wire 1 $ miso_pin $end
$var wire 1 + sr_we $end
$var wire 8 , shift_reg_parallel_out [7:0] $end
$var wire 1 - serial_out_delayed $end
$var wire 1 . serial_out $end
$var wire 1 / serial_in $end
$var wire 1 0 sclk_posedge $end
$var wire 1 " sclk_pin $end
$var wire 1 1 sclk_negedge $end
$var wire 1 # mosi_pin $end
$var wire 1 2 miso_buff $end
$var wire 1 3 dm_we $end
$var wire 8 4 datamemout [7:0] $end
$var wire 1 ' cs_pin $end
$var wire 1 5 cs $end
$var wire 1 ( clk $end
$var wire 7 6 address [6:0] $end
$var wire 1 7 addr_we $end
$scope module al $end
$var wire 7 8 d [6:0] $end
$var wire 1 ( clk $end
$var wire 1 7 ce $end
$var reg 7 9 q [6:0] $end
$upscope $end
$scope module cs_inputcond $end
$var wire 1 ' noisysignal $end
$var wire 1 ( clk $end
$var reg 1 5 conditioned $end
$var reg 3 : counter [2:0] $end
$var reg 1 ; negativeedge $end
$var reg 1 < positiveedge $end
$var reg 1 = synchronizer0 $end
$var reg 1 > synchronizer1 $end
$upscope $end
$scope module dm $end
$var wire 7 ? address [6:0] $end
$var wire 1 3 writeEnable $end
$var wire 8 @ dataIn [7:0] $end
$var wire 1 ( clk $end
$var reg 8 A dataOut [7:0] $end
$upscope $end
$scope module fsm0 $end
$var wire 1 5 cs $end
$var wire 1 B rw $end
$var wire 1 0 sclk_edge $end
$var reg 1 7 addr_we $end
$var reg 4 C counter [3:0] $end
$var reg 1 3 dm_we $end
$var reg 1 2 miso_buff $end
$var reg 1 + sr_we $end
$var reg 3 D state [2:0] $end
$upscope $end
$scope module miso_dff $end
$var wire 1 . d $end
$var wire 1 ( clk $end
$var wire 1 1 ce $end
$var reg 1 - q $end
$upscope $end
$scope module mosi_inputcond $end
$var wire 1 # noisysignal $end
$var wire 1 ( clk $end
$var reg 1 / conditioned $end
$var reg 3 E counter [2:0] $end
$var reg 1 F negativeedge $end
$var reg 1 G positiveedge $end
$var reg 1 H synchronizer0 $end
$var reg 1 I synchronizer1 $end
$upscope $end
$scope module sclk_inputcond $end
$var wire 1 " noisysignal $end
$var wire 1 ( clk $end
$var reg 1 J conditioned $end
$var reg 3 K counter [2:0] $end
$var reg 1 1 negativeedge $end
$var reg 1 0 positiveedge $end
$var reg 1 L synchronizer0 $end
$var reg 1 M synchronizer1 $end
$upscope $end
$scope module sr $end
$var wire 8 N parallelDataIn [7:0] $end
$var wire 8 O parallelDataOut [7:0] $end
$var wire 1 + parallelLoad $end
$var wire 1 0 peripheralClkEdge $end
$var wire 1 / serialDataIn $end
$var wire 1 . serialDataOut $end
$var wire 1 ( clk $end
$var reg 8 P mem [7:0] $end
$upscope $end
$upscope $end
$scope module tester $end
$var wire 1 ) begintest $end
$var wire 4 Q leds [3:0] $end
$var wire 1 $ miso_pin $end
$var reg 1 ( clk $end
$var reg 1 ' cs_pin $end
$var reg 1 & dutpassed $end
$var reg 1 % endtest $end
$var reg 1 # mosi_pin $end
$var reg 1 " sclk_pin $end
$scope task reset_pins $end
$upscope $end
$upscope $end
$upscope $end
$enddefinitions $end
#0
$dumpvars
bz Q
bx P
bx O
bx N
0M
0L
b0 K
xJ
0I
0H
xG
xF
b0 E
b0 D
b0 C
xB
bx A
bx @
bx ?
0>
0=
x<
x;
b0 :
bx 9
bx 8
x7
bx 6
x5
bx 4
x3
x2
x1
x0
x/
x.
x-
bx ,
x+
bz *
0)
0(
1'
x&
x%
x$
0#
0"
bz !
$end
#10
b1 E
b1 K
1=
b1 :
1&
0%
1)
1(
#20
0(
#25
1>
b10 :
b10 K
b10 E
1(
#30
0(
#35
b11 E
b11 K
b11 :
1(
#40
0'
0(
1"
#50
0=
1<
15
b0 :
1L
11
0J
b0 K
1F
0/
b0 E
1(
#60
0(
#70
0F
1M
01
0>
0<
1(
#80
0(
0"
#90
b1 :
0L
b1 K
1(
#100
0(
#110
0M
b10 K
b10 :
1(
#120
0(
1"
#130
b11 :
1L
b0 K
1(
#140
0(
#150
1M
1;
05
b0 :
1(
#160
0(
0"
#170
0;
0L
b1 K
1(
#180
0(
#190
0M
b10 K
1(
#200
1#
0(
1"
#210
1L
b0 K
1H
1(
#220
0(
#230
1I
1M
1(
#240
0(
0"
#250
0L
b1 K
b1 E
1(
#260
0(
#270
b10 E
0M
b10 K
1(
#280
0(
1"
#290
1L
b0 K
b11 E
1(
#300
0(
#310
1G
1/
b0 E
1M
1(
#320
0(
0"
#330
0L
b1 K
0G
1(
#340
0(
#350
0M
b10 K
1(
#360
0(
1"
#370
1L
b0 K
1(
#380
0(
#390
1M
1(
#400
0(
0"
#410
0L
b1 K
1(
#420
0(
#430
0M
b10 K
1(
#440
0#
0(
1"
#450
1L
b0 K
0H
1(
#460
0(
#470
0I
1M
1(
#480
0(
0"
#490
0L
b1 K
b1 E
1(
#500
0(
#510
b10 E
0M
b10 K
1(
#520
1#
0(
1"
#530
1L
b0 K
1H
b11 E
1(
#540
0(
#550
1I
1F
0/
b0 E
1M
1(
#560
0(
0"
#570
0L
b1 K
0F
b1 E
1(
#580
0(
#590
b10 E
0M
b10 K
1(
#600
0#
0(
1"
#610
1L
b0 K
0H
b11 E
1(
#620
0(
#630
0I
1G
1/
b0 E
1M
1(
#640
0(
0"
#650
0L
b1 K
0G
b1 E
1(
#660
0(
#670
b10 E
0M
b10 K
1(
#680
1#
0(
1"
#690
1L
b0 K
1H
b11 E
1(
#700
0(
#710
1I
1F
0/
b0 E
1M
1(
#720
0(
0"
#730
0L
b1 K
0F
b1 E
1(
#740
0(
#750
b10 E
0M
b10 K
1(
#760
0#
0(
1"
#770
1L
b0 K
0H
b11 E
1(
#780
0(
#790
0I
1G
1/
b0 E
1M
1(
#800
0(
0"
#810
0L
b1 K
0G
b1 E
1(
#820
0(
#830
b10 E
0M
b10 K
1(
#840
1#
0(
1"
#850
1L
b0 K
1H
b11 E
1(
#860
0(
#870
1I
1F
0/
b0 E
1M
1(
#880
0(
0"
#890
0L
b1 K
0F
b1 E
1(
#900
0(
#910
b10 E
0M
b10 K
1(
#920
0#
0(
1"
#930
1L
b0 K
0H
b11 E
1(
#940
0(
#950
0I
1G
1/
b0 E
1M
1(
#960
0(
0"
#970
0L
b1 K
0G
b1 E
1(
#980
0(
#990
b10 E
0M
b10 K
1(
#1000
1#
0(
1"
#1010
1L
b0 K
1H
b11 E
1(
#1020
0(
#1030
1I
1F
0/
b0 E
1M
1(
#1040
0(
0"
#1050
0L
b1 K
0F
b1 E
1(
#1060
0(
#1070
b10 E
0M
b10 K
1(
#1080
0#
0(
1"
#1090
1L
b0 K
0H
b11 E
1(
#1100
0(
#1110
0I
1G
1/
b0 E
1M
1(
#1120
0(
0"
#1130
0L
b1 K
0G
b1 E
1(
#1140
0(
#1150
b10 E
0M
b10 K
1(
#1160
1#
0(
1"
#1170
1L
b0 K
1H
b11 E
1(
#1180
0(
#1190
1I
1F
0/
b0 E
1M
1(
#1200
0(
0"
#1210
0L
b1 K
0F
b1 E
1(
#1220
0(
#1230
b10 E
0M
b10 K
1(
#1240
0#
0(
1"
#1250
1L
b0 K
0H
b11 E
1(
#1260
0(
#1270
0I
1G
1/
b0 E
1M
1(
#1280
0(
0"
#1290
0L
b1 K
0G
b1 E
1(
#1300
0(
#1310
b10 E
0M
b10 K
1(
#1320
0(
1"
#1330
1L
b0 K
b11 E
1(
#1340
0(
#1350
1F
0/
b0 E
1M
1(
#1360
0(
0"
#1370
0L
b1 K
0F
1(
#1380
0(
#1390
0M
b10 K
1(
#1400
0(
1"
#1410
1L
b0 K
1(
#1420
0(
#1430
1M
1(
#1440
0(
0"
#1450
0L
b1 K
1(
#1460
0(
#1470
0M
b10 K
1(
#1480
1#
0(
1"
#1490
1L
b0 K
1H
1(
#1500
0(
#1510
1I
1M
1(
#1520
0(
0"
#1530
0L
b1 K
b1 E
1(
#1540
0(
#1550
b10 E
0M
b10 K
1(
#1560
0(
1"
#1570
1L
b0 K
b11 E
1(
#1580
0(
#1590
1G
1/
b0 E
1M
1(
#1600
0(
0"
#1610
0L
b1 K
0G
1(
#1620
0(
#1630
0M
b10 K
1(
#1640
0(
1"
#1650
1L
b0 K
1(
#1660
0(
#1670
1M
1(
#1680
0(
0"
#1690
0L
b1 K
1(
#1700
0(
#1710
0M
b10 K
1(
#1720
0#
0(
1"
#1730
1L
b0 K
0H
1(
#1740
0(
#1750
0I
1M
1(
#1760
0(
0"
#1770
0L
b1 K
b1 E
1(
#1780
0(
#1790
b10 E
0M
b10 K
1(
#1800
1#
0(
1"
#1810
1L
b0 K
1H
b11 E
1(
#1820
0(
#1830
1I
1F
0/
b0 E
1M
1(
#1840
0(
0"
#1850
0L
b1 K
0F
b1 E
1(
#1860
0(
#1870
b10 E
0M
b10 K
1(
#1880
0(
1"
#1890
1L
b0 K
b11 E
1(
#1900
0(
#1910
1G
1/
b0 E
1M
1(
#1920
0(
0"
#1930
0L
b1 K
0G
1(
#1940
0(
#1950
0M
b10 K
1(
#1960
0(
1"
#1970
1L
b0 K
1(
#1980
0(
#1990
1M
1(
#2000
0(
0"
#2010
0L
b1 K
1(
#2020
0(
#2030
0M
b10 K
1(
#2040
0(
1"
#2045
1%
#2050
1L
b0 K
1(
#2060
0(
#2070
1M
1(
#2080
0(
0"
#2090
0L
b1 K
1(
#2100
0(
#2110
0M
b10 K
1(
#2120
0(
1"
#2130
1L
b0 K
1(
#2140
0(
#2150
1M
1(
#2160
0(
0"
#2170
0L
b1 K
1(
#2180
0(
#2190
0M
b10 K
1(
#2200
0(
1"
#2210
1L
b0 K
1(
#2220
0(
#2230
1M
1(
#2240
0(
0"
#2250
0L
b1 K
1(
#2260
0(
#2270
0M
b10 K
1(
#2280
0(
1"
#2290
1L
b0 K
1(
#2300
0(
#2310
1M
1(
#2320
0(
0"
#2330
0L
b1 K
1(
#2340
0(
#2350
0M
b10 K
1(
#2360
0(
1"
#2370
1L
b0 K
1(
#2380
0(
#2390
1M
1(
#2400
0(
0"
#2410
0L
b1 K
1(
#2420
0(
#2430
0M
b10 K
1(
#2440
0(
1"
#2450
1L
b0 K
1(
#2460
0(
#2470
1M
1(
#2480
0(
0"
#2490
0L
b1 K
1(
#2500
0(
#2510
0M
b10 K
1(
#2520
0(
1"
#2530
1L
b0 K
1(
#2540
0(
#2550
1M
1(
#2560
0(
0"
#2570
0L
b1 K
1(
#2580
0(
#2590
0M
b10 K
1(
#2600
0(
1"
#2610
1L
b0 K
1(
#2620
0(
#2630
1M
1(
#2640
0(
0"
#2650
0L
b1 K
1(
#2660
0(
#2670
0M
b10 K
1(
#2680
0(
1"
#2690
1L
b0 K
1(
#2700
0(
#2710
1M
1(
#2720
0(
0"
#2730
0L
b1 K
1(
#2740
0(
#2750
0M
b10 K
1(
#2760
0(
1"
#2770
1L
b0 K
1(
#2780
0(
#2790
1M
1(
#2800
0(
0"
#2810
0L
b1 K
1(
#2820
0(
#2830
0M
b10 K
1(
#2840
0(
1"
#2850
1L
b0 K
1(
#2860
0(
#2870
1M
1(
#2880
0(
0"
#2890
0L
b1 K
1(
#2900
0(
#2910
0M
b10 K
1(
#2920
0(
1"
#2930
1L
b0 K
1(
#2940
0(
#2950
1M
1(
#2960
0(
0"
#2970
0L
b1 K
1(
#2980
0(
#2990
0M
b10 K
1(
#3000
0(
1"
#3010
1L
b0 K
1(
#3020
0(
#3030
1M
1(
#3040
0(
0"
#3050
0L
b1 K
1(
#3060
0(
#3070
0M
b10 K
1(
#3080
0(
1"
#3090
1L
b0 K
1(
#3100
0(
#3110
1M
1(
#3120
0(
0"
#3130
0L
b1 K
1(
#3140
0(
#3150
0M
b10 K
1(
#3160
0(
1"
#3170
1L
b0 K
1(
#3180
0(
#3190
1M
1(
#3200
0(
0"
#3210
0L
b1 K
1(
#3220
0(
#3230
0M
b10 K
1(
#3240
0(
1"
#3250
1L
b0 K
1(
#3260
0(
#3270
1M
1(
#3280
0(
0"
#3290
0L
b1 K
1(
#3300
0(
#3310
0M
b10 K
1(
#3320
0(
1"
#3330
1L
b0 K
1(
#3340
0(
#3350
1M
1(
#3360
0(
0"
#3370
0L
b1 K
1(
#3380
0(
#3390
0M
b10 K
1(
#3400
0(
1"
#3410
1L
b0 K
1(
#3420
0(
#3430
1M
1(
#3440
0(
0"
#3450
0L
b1 K
1(
#3460
0(
#3470
0M
b10 K
1(
#3480
0(
1"
#3490
1L
b0 K
1(
#3500
0(
#3510
1M
1(
#3520
0(
0"
#3530
0L
b1 K
1(
#3540
0(
#3550
0M
b10 K
1(
#3560
0(
1"
#3570
1L
b0 K
1(
#3580
0(
#3590
1M
1(
#3600
0(
0"
#3610
0L
b1 K
1(
#3620
0(
#3630
0M
b10 K
1(
#3640
0(
1"
#3650
1L
b0 K
1(
#3660
0(
#3670
1M
1(
#3680
0(
0"
#3690
0L
b1 K
1(
#3700
0(
#3710
0M
b10 K
1(
#3720
0(
1"
#3730
1L
b0 K
1(
#3740
0(
#3750
1M
1(
#3760
0(
0"
#3770
0L
b1 K
1(
#3780
0(
#3790
0M
b10 K
1(
#3800
0(
1"
#3810
1L
b0 K
1(
#3820
0(
#3830
1M
1(
#3840
0(
0"
#3850
0L
b1 K
1(
#3860
0(
#3870
0M
b10 K
1(
#3880
0(
1"
#3890
1L
b0 K
1(
#3900
0(
#3910
1M
1(
#3920
0(
0"
#3930
0L
b1 K
1(
#3940
0(
#3950
0M
b10 K
1(
#3960
0(
1"
#3970
1L
b0 K
1(
#3980
0(
#3990
1M
1(
#4000
0(
0"
#4010
0L
b1 K
1(
#4020
0(
#4030
0M
b10 K
1(
#4040
0(
1"
#4050
1L
b0 K
1(
#4060
0(
#4070
1M
1(
#4080
0(
0"
#4090
0L
b1 K
1(
#4100
0(
#4110
0M
b10 K
1(
#4120
0(
1"
#4130
1L
b0 K
1(
#4140
0(
#4150
1M
1(
#4160
0(
0"
#4170
0L
b1 K
1(
#4180
0(
#4190
0M
b10 K
1(
#4200
0(
1"
#4210
1L
b0 K
1(
#4220
0(
#4230
1M
1(
#4240
0(
0"
#4250
0L
b1 K
1(
#4260
0(
#4270
0M
b10 K
1(
#4280
0(
1"
#4290
1L
b0 K
1(
#4300
0(
#4310
1M
1(
#4320
0(
0"
#4330
0L
b1 K
1(
#4340
0(
#4350
0M
b10 K
1(
#4360
0(
1"
#4370
1L
b0 K
1(
#4380
0(
#4390
1M
1(
#4400
0(
0"
#4410
0L
b1 K
1(
#4420
0(
#4430
0M
b10 K
1(
#4440
0(
1"
#4450
1L
b0 K
1(
#4460
0(
#4470
1M
1(
#4480
0(
0"
#4490
0L
b1 K
1(
#4500
0(
#4510
0M
b10 K
1(
#4520
0(
1"
#4530
1L
b0 K
1(
#4540
0(
#4550
1M
1(
#4560
0(
0"
#4570
0L
b1 K
1(
#4580
0(
#4590
0M
b10 K
1(
#4600
0(
1"
#4610
1L
b0 K
1(
#4620
0(
#4630
1M
1(
#4640
0(
0"
#4650
0L
b1 K
1(
#4660
0(
#4670
0M
b10 K
1(
#4680
0(
1"
#4690
1L
b0 K
1(
#4700
0(
#4710
1M
1(
#4720
0(
0"
#4730
0L
b1 K
1(
#4740
0(
#4750
0M
b10 K
1(
#4760
0(
1"
#4770
1L
b0 K
1(
#4780
0(
#4790
1M
1(
#4800
0(
0"
#4810
0L
b1 K
1(
#4820
0(
#4830
0M
b10 K
1(
#4840
0(
1"
#4850
1L
b0 K
1(
#4860
0(
#4870
1M
1(
#4880
0(
0"
#4890
0L
b1 K
1(
#4900
0(
#4910
0M
b10 K
1(
#4920
0(
1"
#4930
1L
b0 K
1(
#4940
0(
#4950
1M
1(
#4960
0(
0"
#4970
0L
b1 K
1(
#4980
0(
#4990
0M
b10 K
1(
#5000
0(
1"
#5010
1L
b0 K
1(
#5020
0(
#5030
1M
1(
#5040
0(
0"
#5050
0L
b1 K
1(
#5060
0(
#5070
0M
b10 K
1(
#5080
0(
1"
#5090
1L
b0 K
1(
#5100
0(
#5110
1M
1(
#5120
0(
0"
#5130
0L
b1 K
1(
#5140
0(
#5150
0M
b10 K
1(
#5160
0(
1"
#5170
1L
b0 K
1(
#5180
0(
#5190
1M
1(
#5200
0(
0"
#5210
0L
b1 K
1(
#5220
0(
#5230
0M
b10 K
1(
#5240
0(
1"
#5250
1L
b0 K
1(
#5260
0(
#5270
1M
1(
#5280
0(
0"
#5290
0L
b1 K
1(
#5300
0(
#5310
0M
b10 K
1(
#5320
0(
1"
#5330
1L
b0 K
1(
#5340
0(
#5350
1M
1(
#5360
0(
0"
#5370
0L
b1 K
1(
#5380
0(
#5390
0M
b10 K
1(
#5400
0(
1"
#5410
1L
b0 K
1(
#5420
0(
#5430
1M
1(
#5440
0(
0"
#5450
0L
b1 K
1(
#5460
0(
#5470
0M
b10 K
1(
#5480
0(
1"
#5490
1L
b0 K
1(
#5500
0(
#5510
1M
1(
#5520
0(
0"
#5530
0L
b1 K
1(
#5540
0(
#5550
0M
b10 K
1(
#5560
0(
1"
#5570
1L
b0 K
1(
#5580
0(
#5590
1M
1(
#5600
0(
0"
#5610
0L
b1 K
1(
#5620
0(
#5630
0M
b10 K
1(
#5640
0(
1"
#5650
1L
b0 K
1(
#5660
0(
#5670
1M
1(
#5680
0(
0"
#5690
0L
b1 K
1(
#5700
0(
#5710
0M
b10 K
1(
#5720
0(
1"
#5730
1L
b0 K
1(
#5740
0(
#5750
1M
1(
#5760
0(
0"
#5770
0L
b1 K
1(
#5780
0(
#5790
0M
b10 K
1(
#5800
0(
1"
#5810
1L
b0 K
1(
#5820
0(
#5830
1M
1(
#5840
0(
0"
#5850
0L
b1 K
1(
#5860
0(
#5870
0M
b10 K
1(
#5880
0(
1"
#5890
1L
b0 K
1(
#5900
0(
#5910
1M
1(
#5920
0(
0"
#5930
0L
b1 K
1(
#5940
0(
#5950
0M
b10 K
1(
#5960
0(
1"
#5970
1L
b0 K
1(
#5980
0(
#5990
1M
1(
#6000
0(
0"
#6010
0L
b1 K
1(
#6020
0(
#6030
0M
b10 K
1(
#6040
0(
1"
#6050
1L
b0 K
1(
#6060
0(
#6070
1M
1(
#6080
0(
0"
#6090
0L
b1 K
1(
#6100
0(
#6110
0M
b10 K
1(
#6120
0(
1"
#6130
1L
b0 K
1(
#6140
0(
#6150
1M
1(
#6160
0(
0"
#6170
0L
b1 K
1(
#6180
0(
#6190
0M
b10 K
1(
#6200
0(
1"
#6210
1L
b0 K
1(
#6220
0(
#6230
1M
1(
#6240
0(
0"
#6250
0L
b1 K
1(
#6260
0(
#6270
0M
b10 K
1(
#6280
0(
1"
#6290
1L
b0 K
1(
#6300
0(
#6310
1M
1(
#6320
0(
0"
#6330
0L
b1 K
1(
#6340
0(
#6350
0M
b10 K
1(
#6360
0(
1"
#6370
1L
b0 K
1(
#6380
0(
#6390
1M
1(
#6400
0(
0"
#6410
0L
b1 K
1(
#6420
0(
#6430
0M
b10 K
1(
#6440
0(
1"
#6450
1L
b0 K
1(
#6460
0(
#6470
1M
1(
#6480
0(
0"
#6490
0L
b1 K
1(
#6500
0(
#6510
0M
b10 K
1(
#6520
0(
1"
#6530
1L
b0 K
1(
#6540
0(
#6550
1M
1(
#6560
0(
0"
#6570
0L
b1 K
1(
#6580
0(
#6590
0M
b10 K
1(
#6600
0(
1"
#6610
1L
b0 K
1(
#6620
0(
#6630
1M
1(
#6640
0(
0"
#6650
0L
b1 K
1(
#6660
0(
#6670
0M
b10 K
1(
#6680
0(
1"
#6690
1L
b0 K
1(
#6700
0(
#6710
1M
1(
#6720
0(
0"
#6730
0L
b1 K
1(
#6740
0(
#6750
0M
b10 K
1(
#6760
0(
1"
#6770
1L
b0 K
1(
#6780
0(
#6790
1M
1(
#6800
0(
0"
#6810
0L
b1 K
1(
#6820
0(
#6830
0M
b10 K
1(
#6840
0(
1"
#6850
1L
b0 K
1(
#6860
0(
#6870
1M
1(
#6880
0(
0"
#6890
0L
b1 K
1(
#6900
0(
#6910
0M
b10 K
1(
#6920
0(
1"
#6930
1L
b0 K
1(
#6940
0(
#6950
1M
1(
#6960
0(
0"
#6970
0L
b1 K
1(
#6980
0(
#6990
0M
b10 K
1(
#7000
0(
1"
#7010
1L
b0 K
1(
#7020
0(
#7030
1M
1(
#7040
0(
0"
#7050
0L
b1 K
1(
#7060
0(
#7070
0M
b10 K
1(
#7080
0(
1"
#7090
1L
b0 K
1(
#7100
0(
#7110
1M
1(
#7120
0(
0"
#7130
0L
b1 K
1(
#7140
0(
#7150
0M
b10 K
1(
#7160
0(
1"
#7170
1L
b0 K
1(
#7180
0(
#7190
1M
1(
#7200
0(
0"
#7210
0L
b1 K
1(
#7220
0(
#7230
0M
b10 K
1(
#7240
0(
1"
#7250
1L
b0 K
1(
#7260
0(
#7270
1M
1(
#7280
0(
0"
#7290
0L
b1 K
1(
#7300
0(
#7310
0M
b10 K
1(
#7320
0(
1"
#7330
1L
b0 K
1(
#7340
0(
#7350
1M
1(
#7360
0(
0"
#7370
0L
b1 K
1(
#7380
0(
#7390
0M
b10 K
1(
#7400
0(
1"
#7410
1L
b0 K
1(
#7420
0(
#7430
1M
1(
#7440
0(
0"
#7450
0L
b1 K
1(
#7460
0(
#7470
0M
b10 K
1(
#7480
0(
1"
#7490
1L
b0 K
1(
#7500
0(
#7510
1M
1(
#7520
0(
0"
#7530
0L
b1 K
1(
#7540
0(
#7550
0M
b10 K
1(
#7560
0(
1"
#7570
1L
b0 K
1(
#7580
0(
#7590
1M
1(
#7600
0(
0"
#7610
0L
b1 K
1(
#7620
0(
#7630
0M
b10 K
1(
#7640
0(
1"
#7650
1L
b0 K
1(
#7660
0(
#7670
1M
1(
#7680
0(
0"
#7690
0L
b1 K
1(
#7700
0(
#7710
0M
b10 K
1(
#7720
0(
1"
#7730
1L
b0 K
1(
#7740
0(
#7750
1M
1(
#7760
0(
0"
#7770
0L
b1 K
1(
#7780
0(
#7790
0M
b10 K
1(
#7800
0(
1"
#7810
1L
b0 K
1(
#7820
0(
#7830
1M
1(
#7840
0(
0"
#7850
0L
b1 K
1(
#7860
0(
#7870
0M
b10 K
1(
#7880
0(
1"
#7890
1L
b0 K
1(
#7900
0(
#7910
1M
1(
#7920
0(
0"
#7930
0L
b1 K
1(
#7940
0(
#7950
0M
b10 K
1(
#7960
0(
1"
#7970
1L
b0 K
1(
#7980
0(
#7990
1M
1(
#8000
0(
0"
#8010
0L
b1 K
1(
#8020
0(
#8030
0M
b10 K
1(
#8040
0(
1"
#8050
1L
b0 K
1(
#8060
0(
#8070
1M
1(
#8080
0(
0"
#8090
0L
b1 K
1(
#8100
0(
#8110
0M
b10 K
1(
#8120
0(
1"
#8130
1L
b0 K
1(
#8140
0(
#8150
1M
1(
#8160
0(
0"
#8170
0L
b1 K
1(
#8180
0(
#8190
0M
b10 K
1(
#8200
0(
1"
#8210
1L
b0 K
1(
#8220
0(
#8230
1M
1(
#8240
0(
0"
#8250
0L
b1 K
1(
#8260
0(
#8270
0M
b10 K
1(
#8280
0(
1"
#8290
1L
b0 K
1(
#8300
0(
#8310
1M
1(
#8320
0(
0"
#8330
0L
b1 K
1(
#8340
0(
#8350
0M
b10 K
1(
#8360
0(
1"
#8370
1L
b0 K
1(
#8380
0(
#8390
1M
1(
#8400
0(
0"
#8410
0L
b1 K
1(
#8420
0(
#8430
0M
b10 K
1(
#8440
0(
1"
#8450
1L
b0 K
1(
#8460
0(
#8470
1M
1(
#8480
0(
0"
#8490
0L
b1 K
1(
#8500
0(
#8510
0M
b10 K
1(
#8520
0(
1"
#8530
1L
b0 K
1(
#8540
0(
#8550
1M
1(
#8560
0(
0"
#8570
0L
b1 K
1(
#8580
0(
#8590
0M
b10 K
1(
#8600
0(
1"
#8610
1L
b0 K
1(
#8620
0(
#8630
1M
1(
#8640
0(
0"
#8650
0L
b1 K
1(
#8660
0(
#8670
0M
b10 K
1(
#8680
0(
1"
#8690
1L
b0 K
1(
#8700
0(
#8710
1M
1(
#8720
0(
0"
#8730
0L
b1 K
1(
#8740
0(
#8750
0M
b10 K
1(
#8760
0(
1"
#8770
1L
b0 K
1(
#8780
0(
#8790
1M
1(
#8800
0(
0"
#8810
0L
b1 K
1(
#8820
0(
#8830
0M
b10 K
1(
#8840
0(
1"
#8850
1L
b0 K
1(
#8860
0(
#8870
1M
1(
#8880
0(
0"
#8890
0L
b1 K
1(
#8900
0(
#8910
0M
b10 K
1(
#8920
0(
1"
#8930
1L
b0 K
1(
#8940
0(
#8950
1M
1(
#8960
0(
0"
#8970
0L
b1 K
1(
#8980
0(
#8990
0M
b10 K
1(
#9000
0(
1"
#9010
1L
b0 K
1(
#9020
0(
#9030
1M
1(
#9040
0(
0"
#9050
0L
b1 K
1(
#9060
0(
#9070
0M
b10 K
1(
#9080
0(
1"
#9090
1L
b0 K
1(
#9100
0(
#9110
1M
1(
#9120
0(
0"
#9130
0L
b1 K
1(
#9140
0(
#9150
0M
b10 K
1(
#9160
0(
1"
#9170
1L
b0 K
1(
#9180
0(
#9190
1M
1(
#9200
0(
0"
#9210
0L
b1 K
1(
#9220
0(
#9230
0M
b10 K
1(
#9240
0(
1"
#9250
1L
b0 K
1(
#9260
0(
#9270
1M
1(
#9280
0(
0"
#9290
0L
b1 K
1(
#9300
0(
#9310
0M
b10 K
1(
#9320
0(
1"
#9330
1L
b0 K
1(
#9340
0(
#9350
1M
1(
#9360
0(
0"
#9370
0L
b1 K
1(
#9380
0(
#9390
0M
b10 K
1(
#9400
0(
1"
#9410
1L
b0 K
1(
#9420
0(
#9430
1M
1(
#9440
0(
0"
#9450
0L
b1 K
1(
#9460
0(
#9470
0M
b10 K
1(
#9480
0(
1"
#9490
1L
b0 K
1(
#9500
0(
#9510
1M
1(
#9520
0(
0"
#9530
0L
b1 K
1(
#9540
0(
#9550
0M
b10 K
1(
#9560
0(
1"
#9570
1L
b0 K
1(
#9580
0(
#9590
1M
1(
#9600
0(
0"
#9610
0L
b1 K
1(
#9620
0(
#9630
0M
b10 K
1(
#9640
0(
1"
#9650
1L
b0 K
1(
#9660
0(
#9670
1M
1(
#9680
0(
0"
#9690
0L
b1 K
1(
#9700
0(
#9710
0M
b10 K
1(
#9720
0(
1"
#9730
1L
b0 K
1(
#9740
0(
#9750
1M
1(
#9760
0(
0"
#9770
0L
b1 K
1(
#9780
0(
#9790
0M
b10 K
1(
#9800
0(
1"
#9810
1L
b0 K
1(
#9820
0(
#9830
1M
1(
#9840
0(
0"
#9850
0L
b1 K
1(
#9860
0(
#9870
0M
b10 K
1(
#9880
0(
1"
#9890
1L
b0 K
1(
#9900
0(
#9910
1M
1(
#9920
0(
0"
#9930
0L
b1 K
1(
#9940
0(
#9950
0M
b10 K
1(
#9960
0(
1"
#9970
1L
b0 K
1(
#9980
0(
#9990
1M
1(
#10000
0(
0"
#10010
0L
b1 K
1(
